Olink_R_analysis.qmd
…
# drive sample information from the parquet data frame
rp2_sam <- rp2_npx %>% select(1:4) %>%
  unique %>% 
  rename(plate = PlateID, well = WellID) %>%
  mutate(column = paste0("Column ", substr(well, 2, 3))) %>%
  mutate(row = substr(well, 1, 1))

rp2_sam 

# A tibble: 144 × 6
   SampleID       SampleType     well  plate        column    row  
   <chr>          <chr>          <chr> <chr>        <chr>     <chr>
 1 IO_3862_1158_1 SAMPLE         A7    RP0084-045_A Column 7  A    
 2 IR_8487_1158_1 SAMPLE         A8    RP0084-045_A Column 8  A    
 3 KF_0956_1158_1 SAMPLE         A9    RP0084-045_A Column 9  A    
 4 UM_0172_1035_1 SAMPLE         A10   RP0084-045_A Column 10 A    
 5 IA_7060_1158_1 SAMPLE         A11   RP0084-045_A Column 11 A    
 6 Sample_12      SAMPLE_CONTROL A12   RP0084-045_A Column 12 A    
 7 IY_3055_1035_1 SAMPLE         B7    RP0084-045_A Column 7  B    
 8 IR_6424_1158_1 SAMPLE         B8    RP0084-045_A Column 8  B    
 9 UT_9141_1035_1 SAMPLE         B9    RP0084-045_A Column 9  B    
10 IW_0512_1158_1 SAMPLE         B10   RP0084-045_A Column 10 B    
# ℹ 134 more rows
…
### find out how many CGR samples matched in d1 and rp2

rp2_sam_full <- rp2_sam |>
  inner_join(.sam, by=join_by(SampleID == olink_sample_id)) |>
  inner_join(.subj |> select(subj_id, subj_type, sex, tissue_type))

Joining with `by = join_by(subj_id)`

### 20 external contorl samples are not included.  So there are only 124 rows
rp2_sam_full

# A tibble: 124 × 14
   SampleID       SampleType well  plate   column row   project plate_id subj_id
   <chr>          <chr>      <chr> <chr>   <chr>  <chr> <chr>      <dbl> <chr>  
 1 IO_3862_1158_1 SAMPLE     A7    RP0084… Colum… A     RP0084…        1 A-0096…
 2 IR_8487_1158_1 SAMPLE     A8    RP0084… Colum… A     RP0084…        1 T-0287…
 3 KF_0956_1158_1 SAMPLE     A9    RP0084… Colum… A     RP0084…        1 O-1011…
 4 UM_0172_1035_1 SAMPLE     A10   RP0084… Colum… A     RP0084…        1 Z-0136…
 5 IA_7060_1158_1 SAMPLE     A11   RP0084… Colum… A     RP0084…        1 S-1550…
 6 IY_3055_1035_1 SAMPLE     B7    RP0084… Colum… B     RP0084…        1 V-0934…
 7 IR_6424_1158_1 SAMPLE     B8    RP0084… Colum… B     RP0084…        1 W-0571…
 8 UT_9141_1035_1 SAMPLE     B9    RP0084… Colum… B     RP0084…        1 S-0360…
 9 IW_0512_1158_1 SAMPLE     B10   RP0084… Colum… B     RP0084…        1 S-1146…
10 IW_2461_1035_1 SAMPLE     B11   RP0084… Colum… B     RP0084…        1 R-0344…
# ℹ 114 more rows
# ℹ 5 more variables: aliquot_id <chr>, subsample_id <chr>, subj_type <chr>,
#   sex <chr>, tissue_type <chr>
…
